…
``` r
data_extract|>
  select(id,intervention_type)|>
  arrange(desc(intervention_type))
```

    ## # A tibble: 29 × 2
    ##       id intervention_type      
    ##    <dbl> <chr>                  
    ##  1     5 website/online platform
    ##  2     6 website/online platform
    ##  3    11 website/online platform
    ##  4    16 website/online platform
    ##  5    17 website/online platform
    ##  6    18 website/online platform
    ##  7    22 website/online platform
    ##  8    24 website/online platform
    ##  9    20 wearable device        
    ## 10    28 wearable device        
    ## # ℹ 19 more rows
…
    ## # A tibble: 3 × 2
    ##   setting        count
    ##   <chr>          <int>
    ## 1 home-based        23
    ## 2 clinical based     4
    ## 3 both               2

``` r
data_extract|>
  filter(setting == "home-based")
```

    ## # A tibble: 23 × 32
    ##       id title   year objective study_design intervention who_is_delivering_th…¹
    ##    <dbl> <chr>  <dbl> <chr>     <chr>        <chr>        <chr>                 
    ##  1     1 Telem…  2023 We inves… "a parallel… 12-week int… trainer               
    ##  2     2 Testi…  2024 Test the… "Structured… A Lalaby Ap… Research team         
    ##  3     3 Mobil…  2019 determin… "prospectiv… A comprehen… Physician             
    ##  4     4 Co-cr…  2016 To devel… "User-cente… A telehealt… physiotherapists, sur…
    ##  5     5 Why D…  2014 Explore … "Qualitativ… Web-based Q… Physician             
    ##  6     6 Evalu…  2022 Evaluate… "Mixed-meth… Digital pla… oncologists, nurses, …
    ##  7     8 Pilot…  2020 Assess t… "Pilot stud… Telehealth … Physical and occupati…
    ##  8     9 Exper…  2017 Tests ne… "survey, qu… Patients co… Lung cancer nurse spe…
    ##  9    12 Teleh…  2024 To evalu… "Multisite … Early palli… Physician             
    ## 10    14 Impro…  2017 To evalu… "Retrospect… self-report… Physician             
    ## # ℹ 13 more rows
    ## # ℹ abbreviated name: ¹​who_is_delivering_the_intervention
    ## # ℹ 25 more variables: setting <chr>, length_of_interventions <chr>,
    ## #   frequency_of_interventions <chr>,
    ## #   theory_or_non_theory_based_is_it_guided_by_a_specific_framework <chr>,
    ## #   country_region <chr>, patient_demographics <chr>, age_range <chr>,
    ## #   stage_of_cancer <chr>, stage_2 <chr>, …

## stage

``` r
data_extract|>
  select(id,stage_2)|>
  arrange(desc(stage_2))
```

    ## # A tibble: 29 × 2
    ##       id stage_2             
    ##    <dbl> <chr>               
    ##  1     1 local and metastatic
    ##  2     3 local and metastatic
    ##  3     5 local and metastatic
    ##  4     6 local and metastatic
    ##  5     7 local and metastatic
    ##  6    14 local and metastatic
    ##  7    20 local and metastatic
    ##  8    21 local and metastatic
    ##  9    23 local and metastatic
    ## 10    24 local and metastatic
    ## # ℹ 19 more rows
…
